\relax 
\providecommand\hyper@newdestlabel[2]{}
\providecommand\HyperFirstAtBeginDocument{\AtBeginDocument}
\HyperFirstAtBeginDocument{\ifx\hyper@anchor\@undefined
\global\let\oldcontentsline\contentsline
\gdef\contentsline#1#2#3#4{\oldcontentsline{#1}{#2}{#3}}
\global\let\oldnewlabel\newlabel
\gdef\newlabel#1#2{\newlabelxx{#1}#2}
\gdef\newlabelxx#1#2#3#4#5#6{\oldnewlabel{#1}{{#2}{#3}}}
\AtEndDocument{\ifx\hyper@anchor\@undefined
\let\contentsline\oldcontentsline
\let\newlabel\oldnewlabel
\fi}
\fi}
\global\let\hyper@last\relax 
\gdef\HyperFirstAtBeginDocument#1{#1}
\providecommand\HyField@AuxAddToFields[1]{}
\providecommand\HyField@AuxAddToCoFields[2]{}
\providecommand*\caption@xref[2]{\@setref\relax\@undefined{#1}}
\newlabel{fig:redlogo2}{{\caption@xref {fig:redlogo2}{ on input line 66}}{i}{}{figure.caption.1}{}}
\@writefile{toc}{\contentsline {chapter}{Abstract}{vii}{dummy.2}}
\@writefile{toc}{\vspace  {0em}}
\@writefile{toc}{\contentsline {chapter}{Acknowledgements}{ix}{dummy.3}}
\@writefile{toc}{\vspace  {0em}}
\@writefile{toc}{\contentsline {chapter}{Contents}{xi}{dummy.4}}
\@writefile{toc}{\contentsline {chapter}{List of Figures}{xiii}{dummy.6}}
\@writefile{toc}{\contentsline {chapter}{List of Algorithms}{xv}{dummy.8}}
\citation{jannach2010recommender}
\@writefile{toc}{\vspace  {2em}}
\@writefile{toc}{\contentsline {chapter}{\numberline {1}Introduction}{1}{chapter.10}}
\@writefile{lof}{\addvspace {10\p@ }}
\@writefile{lot}{\addvspace {10\p@ }}
\newlabel{Chapter1}{{1}{1}{Introduction}{chapter.10}{}}
\citation{Liu}
\citation{ma2011recommender,ma2009learning}
\citation{netflix}
\citation{das2007google}
\citation{robinson1999automated}
\@writefile{toc}{\contentsline {section}{\numberline {1.1}Motivation}{2}{section.11}}
\@writefile{toc}{\contentsline {section}{\numberline {1.2}Problem Statement}{2}{section.12}}
\@writefile{toc}{\contentsline {section}{\numberline {1.3}Contributions of this Thesis}{3}{section.13}}
\@writefile{toc}{\contentsline {section}{\numberline {1.4}Outline of the Thesis}{3}{section.14}}
\citation{de2010combining}
\@writefile{toc}{\contentsline {chapter}{\numberline {2}Background}{5}{chapter.15}}
\@writefile{lof}{\addvspace {10\p@ }}
\@writefile{lot}{\addvspace {10\p@ }}
\newlabel{Chapter2}{{2}{5}{Background}{chapter.15}{}}
\@writefile{toc}{\contentsline {section}{\numberline {2.1}Challenges in Collaborative Filtering}{5}{section.16}}
\citation{das2007google}
\@writefile{toc}{\contentsline {subsection}{\numberline {2.1.1}Data Sparsity and Cold Start}{6}{subsection.17}}
\@writefile{toc}{\contentsline {subsection}{\numberline {2.1.2}Scalability}{6}{subsection.18}}
\@writefile{toc}{\contentsline {section}{\numberline {2.2}Overview of the techniques}{6}{section.19}}
\citation{sarwar2001item}
\citation{breese1998empirical}
\@writefile{toc}{\contentsline {subsection}{\numberline {2.2.1}Memory-Based Collaborative Filtering Techniques}{7}{subsection.20}}
\newlabel{cos}{{2.1}{7}{Memory-Based Collaborative Filtering Techniques}{equation.21}{}}
\citation{chee2001rectree}
\citation{breese1998empirical}
\citation{breese1998empirical,lemire2005scale}
\citation{su2009survey}
\@writefile{toc}{\contentsline {subsubsection}{\numberline {2.2.1.1}Default Voting}{8}{subsubsection.22}}
\@writefile{toc}{\contentsline {subsubsection}{\numberline {2.2.1.2}Inverse User Frequency}{8}{subsubsection.23}}
\@writefile{toc}{\contentsline {subsubsection}{\numberline {2.2.1.3}Case Amplification}{8}{subsubsection.24}}
\citation{ungar1998clustering,chee2001rectree}
\citation{das2007google}
\@writefile{toc}{\contentsline {subsection}{\numberline {2.2.2}Model-Based Collaborative Filtering Techniques}{9}{subsection.25}}
\@writefile{toc}{\contentsline {subsubsection}{\numberline {2.2.2.1}Clustering Techniques}{9}{subsubsection.26}}
\citation{lemire2005slope}
\citation{hofmann2005collaborative}
\citation{koren2009matrix}
\citation{das2007google}
\@writefile{toc}{\contentsline {subsubsection}{\numberline {2.2.2.2}Regression-Based Techniques}{10}{subsubsection.27}}
\@writefile{toc}{\contentsline {subsubsection}{\numberline {2.2.2.3}Latent Factor Models }{10}{subsubsection.28}}
\citation{kautz1997referral}
\citation{konstas2009social}
\citation{jamali2009trustwalker}
\citation{jamali2009using}
\@writefile{toc}{\contentsline {subsection}{\numberline {2.2.3}Social Network-Based Collaborative Filtering}{11}{subsection.29}}
\@writefile{toc}{\contentsline {subsubsection}{\numberline {2.2.3.1}Neighborhood-Based Social Recommender Systems}{11}{subsubsection.30}}
\citation{ma2008sorec}
\citation{yang2012top}
\citation{ma2009learning}
\citation{ma2011recommender}
\@writefile{toc}{\contentsline {subsubsection}{\numberline {2.2.3.2}Matrix Factorization-Based Social Recommender Systems}{12}{subsubsection.31}}
\@writefile{toc}{}
\@writefile{toc}{\contentsline {chapter}{\numberline {3}Low Rank Matrix Factorization}{13}{chapter.32}}
\@writefile{lof}{\addvspace {10\p@ }}
\@writefile{lot}{\addvspace {10\p@ }}
\newlabel{Chapter3}{{3}{13}{Low Rank Matrix Factorization}{chapter.32}{}}
\@writefile{toc}{\contentsline {section}{\numberline {3.1}Problem Formulation}{13}{section.33}}
\newlabel{hat}{{3.1}{13}{Problem Formulation}{equation.34}{}}
\@writefile{lof}{\contentsline {figure}{\numberline {3.1}{\ignorespaces Matrix Factorization Approach}}{14}{figure.caption.36}}
\newlabel{fig:approach}{{3.1}{14}{Matrix Factorization Approach}{figure.caption.36}{}}
\newlabel{lossfun}{{3.2}{14}{Problem Formulation}{equation.35}{}}
\@writefile{toc}{\contentsline {section}{\numberline {3.2}Learning Algorithms}{14}{section.38}}
\@writefile{loa}{\contentsline {algorithm}{\numberline {1}{\ignorespaces Alternating Least Squares\relax }}{15}{algorithm.40}}
\newlabel{ALS}{{1}{15}{Alternating Least Squares\relax }{algorithm.40}{}}
\@writefile{toc}{\contentsline {subsection}{\numberline {3.2.1}Alternating Least Squares}{15}{subsection.39}}
\@writefile{toc}{\contentsline {subsection}{\numberline {3.2.2}Stochastic Gradient Descent}{16}{subsection.41}}
\newlabel{err}{{3.4}{16}{Stochastic Gradient Descent}{equation.42}{}}
\newlabel{sgdu}{{3.5}{16}{Stochastic Gradient Descent}{equation.43}{}}
\newlabel{sgdm}{{3.6}{16}{Stochastic Gradient Descent}{equation.44}{}}
\@writefile{toc}{\contentsline {subsection}{\numberline {3.2.3}Alternating Least Squares versus Stochastic Gradient Descent}{16}{subsection.45}}
\@writefile{toc}{\contentsline {section}{\numberline {3.3}Update Rules for ALS}{17}{section.46}}
\newlabel{updaterules}{{3.3}{17}{Update Rules for ALS}{section.46}{}}
\@writefile{toc}{\contentsline {section}{\numberline {3.4}Scalability}{18}{section.54}}
\newlabel{scale}{{3.4}{18}{Scalability}{section.54}{}}
\newlabel{updateu}{{3.14}{18}{Scalability}{equation.55}{}}
\newlabel{updatem}{{3.15}{18}{Scalability}{equation.56}{}}
\citation{yuan2011factorization,noel2012new,ma2011recommender}
\@writefile{toc}{\contentsline {section}{\numberline {3.5}Different Loss Functions}{19}{section.57}}
\citation{koren2009matrix}
\@writefile{toc}{\contentsline {chapter}{\numberline {4}Our Approach}{21}{chapter.58}}
\@writefile{lof}{\addvspace {10\p@ }}
\@writefile{lot}{\addvspace {10\p@ }}
\newlabel{Chapter4}{{4}{21}{Our Approach}{chapter.58}{}}
\@writefile{toc}{\contentsline {section}{\numberline {4.1}Problem Formulation}{21}{section.59}}
\@writefile{toc}{\contentsline {section}{\numberline {4.2}Social Matrix Factorization}{22}{section.60}}
\@writefile{toc}{\contentsline {subsection}{\numberline {4.2.1}Social Connection Term}{22}{subsection.62}}
\@writefile{toc}{\contentsline {subsection}{\numberline {4.2.2}Justification for the Social Connection Term }{23}{subsection.64}}
\@writefile{toc}{\contentsline {section}{\numberline {4.3}Learning Algorithm}{23}{section.65}}
\@writefile{loa}{\contentsline {algorithm}{\numberline {2}{\ignorespaces Social Alternating Least Squares\relax }}{24}{algorithm.66}}
\newlabel{SocialALS}{{2}{24}{Social Alternating Least Squares\relax }{algorithm.66}{}}
\@writefile{toc}{\contentsline {section}{\numberline {4.4}Update Rules for Social ALS}{24}{section.67}}
\@writefile{lot}{\contentsline {table}{\numberline {4.1}{\ignorespaces List of symbols}}{25}{table.caption.68}}
\newlabel{tab:symbols}{{4.1}{25}{List of symbols}{table.caption.68}{}}
\@writefile{toc}{\contentsline {subsection}{\numberline {4.4.1}Update Rule for User Feature Matrix}{25}{subsection.69}}
\newlabel{approxi}{{4.3}{25}{Update Rule for User Feature Matrix}{equation.70}{}}
\newlabel{socialoss}{{4.4}{25}{Update Rule for User Feature Matrix}{equation.71}{}}
\@writefile{toc}{\contentsline {subsection}{\numberline {4.4.2}Update Rule for Item Feature Matrix}{26}{subsection.77}}
\newlabel{socialossm}{{4.10}{26}{Update Rule for Item Feature Matrix}{equation.78}{}}
\@writefile{toc}{\contentsline {section}{\numberline {4.5}Parameter Tuning}{27}{section.84}}
\newlabel{partuning}{{4.5}{27}{Parameter Tuning}{section.84}{}}
\newlabel{aerr}{{4.16}{28}{Parameter Tuning}{equation.85}{}}
\newlabel{aerr1}{{4.17}{28}{Parameter Tuning}{equation.86}{}}
\newlabel{gg}{{4.18}{28}{Parameter Tuning}{equation.87}{}}
\newlabel{alpha}{{4.19}{28}{Parameter Tuning}{equation.88}{}}
\@writefile{toc}{\contentsline {chapter}{\numberline {5}Experiments and Results}{29}{chapter.89}}
\@writefile{lof}{\addvspace {10\p@ }}
\@writefile{lot}{\addvspace {10\p@ }}
\newlabel{Chapter5}{{5}{29}{Experiments and Results}{chapter.89}{}}
\@writefile{toc}{\contentsline {section}{\numberline {5.1}Setup}{29}{section.90}}
\@writefile{lot}{\contentsline {table}{\numberline {5.1}{\ignorespaces Dataset Details}}{30}{table.caption.95}}
\newlabel{tab:datasets}{{5.1}{30}{Dataset Details}{table.caption.95}{}}
\@writefile{toc}{\contentsline {subsection}{\numberline {5.1.1}Datasets}{30}{subsection.91}}
\@writefile{toc}{\contentsline {subsection}{\numberline {5.1.2}Parameters}{31}{subsection.96}}
\@writefile{toc}{\contentsline {section}{\numberline {5.2}Parameter Tuning}{31}{section.97}}
\@writefile{lof}{\contentsline {figure}{\numberline {5.1}{\ignorespaces Effect of Lambda on Epinions dataset}}{32}{figure.caption.99}}
\newlabel{fig:Lambda}{{5.1}{32}{Effect of Lambda on Epinions dataset}{figure.caption.99}{}}
\@writefile{toc}{\contentsline {subsection}{\numberline {5.2.1}Lambda}{32}{subsection.98}}
\@writefile{lof}{\contentsline {figure}{\numberline {5.2}{\ignorespaces Effect of Lambda on Douban dataset}}{33}{figure.caption.100}}
\newlabel{fig:LambdaD}{{5.2}{33}{Effect of Lambda on Douban dataset}{figure.caption.100}{}}
\@writefile{toc}{\contentsline {subsection}{\numberline {5.2.2}Number of Features}{33}{subsection.101}}
\@writefile{lof}{\contentsline {figure}{\numberline {5.3}{\ignorespaces Effect of number of features on Epinions dataset}}{34}{figure.caption.102}}
\newlabel{fig:ksoce}{{5.3}{34}{Effect of number of features on Epinions dataset}{figure.caption.102}{}}
\@writefile{lof}{\contentsline {figure}{\numberline {5.4}{\ignorespaces Effect of number of features on Douban dataset}}{34}{figure.caption.103}}
\newlabel{fig:ksoce}{{5.4}{34}{Effect of number of features on Douban dataset}{figure.caption.103}{}}
\@writefile{toc}{\contentsline {subsection}{\numberline {5.2.3}Alpha}{35}{subsection.104}}
\@writefile{toc}{\contentsline {subsubsection}{\numberline {5.2.3.1}Douban Dataset}{35}{subsubsection.105}}
\@writefile{lof}{\contentsline {figure}{\numberline {5.5}{\ignorespaces Effect of social connection term on Douban dataset}}{36}{figure.caption.106}}
\newlabel{fig:alphad}{{5.5}{36}{Effect of social connection term on Douban dataset}{figure.caption.106}{}}
\@writefile{lof}{\contentsline {figure}{\numberline {5.6}{\ignorespaces Effect of Lambda for different social constants on Douban dataset }}{37}{figure.caption.107}}
\newlabel{fig:Alpha1}{{5.6}{37}{Effect of Lambda for different social constants on Douban dataset}{figure.caption.107}{}}
\@writefile{lot}{\contentsline {table}{\numberline {5.2}{\ignorespaces Parameters for Douban dataset}}{37}{table.caption.108}}
\newlabel{tab:gsondouban}{{5.2}{37}{Parameters for Douban dataset}{table.caption.108}{}}
\@writefile{toc}{\contentsline {subsubsection}{\numberline {5.2.3.2}Epinions Dataset}{37}{subsubsection.109}}
\@writefile{lof}{\contentsline {figure}{\numberline {5.7}{\ignorespaces Effect of social connection term on Epinions dataset}}{38}{figure.caption.110}}
\newlabel{fig:alphae}{{5.7}{38}{Effect of social connection term on Epinions dataset}{figure.caption.110}{}}
\@writefile{lot}{\contentsline {table}{\numberline {5.3}{\ignorespaces Parameters for Epinions dataset}}{38}{table.caption.112}}
\newlabel{tab:gsondouban}{{5.3}{38}{Parameters for Epinions dataset}{table.caption.112}{}}
\@writefile{lof}{\contentsline {figure}{\numberline {5.8}{\ignorespaces Effect of Lambda for different social constants on Epinions dataset}}{39}{figure.caption.111}}
\newlabel{fig:Alpha2}{{5.8}{39}{Effect of Lambda for different social constants on Epinions dataset}{figure.caption.111}{}}
\@writefile{toc}{\contentsline {section}{\numberline {5.3}Effect of the Social Connection Term}{39}{section.113}}
\@writefile{toc}{\contentsline {chapter}{\numberline {6}Conclusion and Future Work}{41}{chapter.114}}
\@writefile{lof}{\addvspace {10\p@ }}
\@writefile{lot}{\addvspace {10\p@ }}
\newlabel{Chapter6}{{6}{41}{Conclusion and Future Work}{chapter.114}{}}
\bibstyle{alpha}
\bibdata{Bibliography}
\newlabel{Bibliography}{{6}{42}{Conclusion and Future Work}{chapter.114}{}}
\bibcite{breese1998empirical}{{BHK98}{}{{}}{{}}}
\bibcite{chee2001rectree}{{CHW01}{}{{}}{{}}}
\bibcite{de2010combining}{{DCFLHRM10}{}{{}}{{}}}
\bibcite{das2007google}{{DDGR07}{}{{}}{{}}}
\bibcite{hofmann2005collaborative}{{HH05}{}{{}}{{}}}
\bibcite{jamali2009trustwalker}{{JE09a}{}{{}}{{}}}
\bibcite{jamali2009using}{{JE09b}{}{{}}{{}}}
\bibcite{jannach2010recommender}{{JZFF10}{}{{}}{{}}}
\bibcite{koren2009matrix}{{KBV09}{}{{}}{{}}}
\bibcite{konstas2009social}{{KSJ09}{}{{}}{{}}}
\bibcite{kautz1997referral}{{KSS97}{}{{}}{{}}}
\bibcite{lemire2005scale}{{Lem05}{}{{}}{{}}}
\bibcite{Liu}{{LL10}{}{{}}{{}}}
\bibcite{lemire2005slope}{{LM05}{}{{}}{{}}}
\bibcite{ma2009learning}{{MKL09}{}{{}}{{}}}
\bibcite{ma2008sorec}{{MYLK08}{}{{}}{{}}}
\bibcite{ma2011recommender}{{MZL{$^{+}$}11}{}{{}}{{}}}
\bibcite{noel2012new}{{NST{$^{+}$}12}{}{{}}{{}}}
\bibcite{robinson1999automated}{{Rob99}{}{{}}{{}}}
\bibcite{su2009survey}{{SK09}{}{{}}{{}}}
\bibcite{sarwar2001item}{{SKKR01}{}{{}}{{}}}
\bibcite{ungar1998clustering}{{UF98}{}{{}}{{}}}
\bibcite{yuan2011factorization}{{YCZ11}{}{{}}{{}}}
\bibcite{yang2012top}{{YSGL12}{}{{}}{{}}}
\bibcite{netflix}{{ZWSP08}{}{{}}{{}}}
\providecommand\NAT@force@numbers{}\NAT@force@numbers
